[api-updater (non-obsolete-error-filter)] 7/5/2564 20:20:03 : Starting C:/Program Files/Unity/Hub/Editor/2020.2.2f1/Editor/Data/Tools/ScriptUpdater/APIUpdater.NonObsoleteApiUpdaterDetector.exe
[api-updater (non-obsolete-error-filter)] 
----------------------------------
jit/startup time      : 736.1952ms
moved types parse time: 62ms
candidates parse time : 0ms
C# parse time         : 711ms
candidates check time : 59ms
console write time    : 0ms

[api-updater (non-obsolete-error-filter)] 7/5/2564 21:30:11 : Starting C:/Program Files/Unity/Hub/Editor/2020.2.2f1/Editor/Data/Tools/ScriptUpdater/APIUpdater.NonObsoleteApiUpdaterDetector.exe
[api-updater (non-obsolete-error-filter)] 
----------------------------------
jit/startup time      : 115.1796ms
moved types parse time: 42ms
candidates parse time : 1ms
C# parse time         : 158ms
candidates check time : 40ms
console write time    : 0ms

[api-updater (non-obsolete-error-filter)] 7/5/2564 21:31:03 : Starting C:/Program Files/Unity/Hub/Editor/2020.2.2f1/Editor/Data/Tools/ScriptUpdater/APIUpdater.NonObsoleteApiUpdaterDetector.exe
[api-updater (non-obsolete-error-filter)] 
----------------------------------
jit/startup time      : 60.5121ms
moved types parse time: 43ms
candidates parse time : 1ms
C# parse time         : 146ms
candidates check time : 38ms
console write time    : 0ms

